<?xml version="1.0" encoding="UTF-8"?>
<svg width="16px" height="16px" viewBox="0 0 16 16" version="1.1" xmlns="http://www.w3.org/2000/svg" xmlns:xlink="http://www.w3.org/1999/xlink">
    <!-- Generator: Sketch 52.1 (67048) - http://www.bohemiancoding.com/sketch -->
    <title>Shape</title>
    <desc>Created with Sketch.</desc>
    <g id="Page-1" stroke="none" stroke-width="1" fill="none" fill-rule="evenodd">
        <g id="01_Mobile" transform="translate(-277.000000, -1144.000000)" fill="#71CD99" fill-rule="nonzero">
            <g id="Group-2" transform="translate(179.000000, 1143.000000)">
                <g id="noun_Arrow-drop-down_538451" transform="translate(98.000000, 1.000000)">
                    <path d="M8,1.66666667 C11.5,1.66666667 14.3333333,4.5 14.3333333,8 C14.3333333,11.5 11.5,14.3333333 8,14.3333333 C4.5,14.3333333 1.66666667,11.5 1.66666667,8 C1.66666667,4.5 4.5,1.66666667 8,1.66666667 Z M8,0 C3.56666667,0 0,3.56666667 0,8 C0,12.4333333 3.56666667,16 8,16 C12.4333333,16 16,12.4333333 16,8 C16,3.56666667 12.4333333,0 8,0 Z M8.6,9.93333333 L10.6,7.93333333 C10.9333333,7.6 10.9333333,7.06666667 10.6,6.76666667 C10.2666667,6.43333333 9.73333333,6.43333333 9.43333333,6.76666667 L8,8.16666667 L6.6,6.76666667 C6.26666667,6.43333333 5.73333333,6.43333333 5.43333333,6.76666667 C5.1,7.1 5.1,7.63333333 5.43333333,7.93333333 L7.43333333,9.93333333 C7.6,10.1 7.8,10.1666667 8.03333333,10.1666667 C8.26666667,10.1666667 8.43333333,10.1 8.6,9.93333333 Z" id="Shape"></path>
                </g>
            </g>
        </g>
    </g>
</svg>